kyyeee.github.io
…
# Combine dfs
tidy_data <- bind_rows(data_list, .id = "sheet")

# View data
print(tidy_data)

# A tibble: 149 × 138
   sheet `Mouse ID` Sex   Genotype DOB     `First Test Week` `8.11` `1`   `8.16`
   <chr> <chr>      <chr> <chr>    <chr>   <chr>             <chr>  <chr> <chr> 
 1 1     82         M     Het      6.7.23  8.11.2023         139    27.8  118   
 2 1     83         M     Het      6.7.23  8.11.2023         126    25.5  121   
 3 1     84         M     Het      6.7.23  8.11.2023         141    31.5  11    
 4 1     85         M     Wt       6.7.23  8.11.2023         177    28.9  126   
 5 1     86         M     Het      6.7.23  8.11.2023         136    28.2  121   
 6 1     87         M     Het      6.7.23  8.11.2023         125    29.9  122   
 7 1     88         F     Het      6.16.23 8.11.2023         160    23    120   
 8 1     89         F     Het      6.16.23 8.11.2023         117    22.2  104   
 9 1     90         F     Het      6.16.23 8.11.2023         138    24.7  121   
10 1     91         F     Het      6.16.23 8.11.2023         122    20.1  131   
# ℹ 139 more rows
# ℹ 129 more variables: `2` <chr>, `8.31.23` <chr>, `3` <chr>, `9.7.23` <chr>,
#   `4` <chr>, `9.14.23` <chr>, `5` <chr>, `9.20.23` <chr>, `6` <chr>,
#   `9.27.23` <chr>, `7` <chr>, `10.3.23` <chr>, `8` <chr>, `10.10.23` <chr>,
#   `9` <chr>, `10.17.23` <chr>, `10` <chr>, `10.24.23` <chr>, `11` <chr>,
#   `10.31.23` <chr>, `12` <chr>, `11.7.23` <chr>, `13` <chr>,
#   `11.14.23` <chr>, `14` <chr>, `11.21.23` <chr>, `15` <chr>, …
…
